[
    {
        "id": "ea331a57.5ef538",
        "type": "tab",
        "label": "Flow 1",
        "disabled": false,
        "info": ""
    },
    {
        "id": "7f533fc1.67def8",
        "type": "serial-port",
        "serialport": "/dev/ttyUSB0",
        "serialbaud": "115200",
        "databits": "8",
        "parity": "none",
        "stopbits": "1",
        "waitfor": "",
        "dtr": "none",
        "rts": "none",
        "cts": "none",
        "dsr": "none",
        "newline": "\\n",
        "bin": "false",
        "out": "char",
        "addchar": "\\n",
        "responsetimeout": "10000"
    },
    {
        "id": "4e3b6b93.ce7004",
        "type": "server",
        "name": "Home Assistant",
        "version": 1,
        "addon": true,
        "rejectUnauthorizedCerts": true,
        "ha_boolean": "y|yes|true|on|home|open",
        "connectionDelay": true,
        "cacheJson": true
    },
    {
        "id": "52771899.32c2b",
        "type": "serial in",
        "z": "ea331a57.5ef538",
        "name": "",
        "serial": "7f533fc1.67def8",
        "x": 210,
        "y": 780,
        "wires": [
            [
                "4df80a2c.c7eccc"
            ]
        ]
    },
    {
        "id": "772830d.4adcad",
        "type": "debug",
        "z": "ea331a57.5ef538",
        "name": "Debug input",
        "active": false,
        "tosidebar": true,
        "console": false,
        "tostatus": false,
        "complete": "payload",
        "targetType": "msg",
        "statusVal": "",
        "statusType": "auto",
        "x": 1550,
        "y": 620,
        "wires": []
    },
    {
        "id": "16a6a4da.4ebf43",
        "type": "ha-entity",
        "z": "ea331a57.5ef538",
        "name": "Switchboard Temperature 1",
        "server": "4e3b6b93.ce7004",
        "version": 1,
        "debugenabled": false,
        "outputs": 1,
        "entityType": "sensor",
        "config": [
            {
                "property": "name",
                "value": "Switchboard Temperature 1"
            },
            {
                "property": "device_class",
                "value": "temperature"
            },
            {
                "property": "icon",
                "value": ""
            },
            {
                "property": "unit_of_measurement",
                "value": " °C"
            }
        ],
        "state": "payload.values.temperature",
        "stateType": "msg",
        "attributes": [],
        "resend": true,
        "outputLocation": "",
        "outputLocationType": "none",
        "inputOverride": "allow",
        "outputOnStateChange": false,
        "outputPayload": "$entity().state ? \"on\": \"off\"",
        "outputPayloadType": "jsonata",
        "x": 1180,
        "y": 80,
        "wires": [
            []
        ]
    },
    {
        "id": "4df80a2c.c7eccc",
        "type": "json",
        "z": "ea331a57.5ef538",
        "name": "json",
        "property": "payload",
        "action": "obj",
        "pretty": false,
        "x": 370,
        "y": 780,
        "wires": [
            [
                "dd1bb6b2.67e99"
            ]
        ]
    },
    {
        "id": "dd1bb6b2.67e99",
        "type": "switch",
        "z": "ea331a57.5ef538",
        "name": "message type",
        "property": "payload",
        "propertyType": "msg",
        "rules": [
            {
                "t": "hask",
                "v": "env_index",
                "vt": "str"
            },
            {
                "t": "hask",
                "v": "uptime",
                "vt": "str"
            },
            {
                "t": "jsonata_exp",
                "v": "",
                "vt": "jsonata"
            }
        ],
        "checkall": "true",
        "repair": false,
        "outputs": 3,
        "x": 540,
        "y": 780,
        "wires": [
            [
                "5d4e813c.9dc8"
            ],
            [
                "f156d4a0.c78fa",
                "a69f07a2.e9f47",
                "cf5baa30.d9675",
                "8fb2f84f.702738",
                "c8b0a8d5.11b338",
                "1d1e261b.31a63a"
            ],
            []
        ]
    },
    {
        "id": "5d4e813c.9dc8",
        "type": "switch",
        "z": "ea331a57.5ef538",
        "name": "env sensor set",
        "property": "payload.env_index",
        "propertyType": "msg",
        "rules": [
            {
                "t": "eq",
                "v": "0",
                "vt": "str"
            },
            {
                "t": "eq",
                "v": "1",
                "vt": "str"
            }
        ],
        "checkall": "true",
        "repair": false,
        "outputs": 2,
        "x": 760,
        "y": 660,
        "wires": [
            [
                "16a6a4da.4ebf43",
                "a4e9c632.445ff8",
                "10e4c5fc.fe6542",
                "11f73bda.5e7774",
                "a50f7d23.ba6da8",
                "cc1b43d4.27063",
                "e807ee7f.7d1f38",
                "74a76213.462f64",
                "9643367d.56db2",
                "772830d.4adcad"
            ],
            [
                "fd6ef53.4b46f88",
                "4eaa60fa.8c577",
                "34354ab2.598f06",
                "a3eefd90.21a988",
                "642f9cb2.d46cac",
                "2b9d8fda.2573d8",
                "e5043c1e.c09978",
                "cbdaaa28.7fe778",
                "f1b233ff.c63548"
            ]
        ]
    },
    {
        "id": "4eaa60fa.8c577",
        "type": "ha-entity",
        "z": "ea331a57.5ef538",
        "name": "Switchboard Temperature 2",
        "server": "4e3b6b93.ce7004",
        "version": 1,
        "debugenabled": false,
        "outputs": 1,
        "entityType": "sensor",
        "config": [
            {
                "property": "name",
                "value": "Switchboard Temperature 2"
            },
            {
                "property": "device_class",
                "value": "temperature"
            },
            {
                "property": "icon",
                "value": ""
            },
            {
                "property": "unit_of_measurement",
                "value": " °C"
            }
        ],
        "state": "payload.values.temperature",
        "stateType": "msg",
        "attributes": [],
        "resend": true,
        "outputLocation": "",
        "outputLocationType": "none",
        "inputOverride": "allow",
        "outputOnStateChange": false,
        "outputPayload": "$entity().state ? \"on\": \"off\"",
        "outputPayloadType": "jsonata",
        "x": 1180,
        "y": 140,
        "wires": [
            []
        ]
    },
    {
        "id": "fd6ef53.4b46f88",
        "type": "ha-entity",
        "z": "ea331a57.5ef538",
        "name": "Switchboard Humidity 2",
        "server": "4e3b6b93.ce7004",
        "version": 1,
        "debugenabled": false,
        "outputs": 1,
        "entityType": "sensor",
        "config": [
            {
                "property": "name",
                "value": "Switchboard Humidity 2"
            },
            {
                "property": "device_class",
                "value": "humidity"
            },
            {
                "property": "icon",
                "value": ""
            },
            {
                "property": "unit_of_measurement",
                "value": "%"
            }
        ],
        "state": "payload.values.humidity",
        "stateType": "msg",
        "attributes": [],
        "resend": true,
        "outputLocation": "",
        "outputLocationType": "none",
        "inputOverride": "allow",
        "outputOnStateChange": false,
        "outputPayload": "$entity().state ? \"on\": \"off\"",
        "outputPayloadType": "jsonata",
        "x": 1170,
        "y": 280,
        "wires": [
            []
        ]
    },
    {
        "id": "10e4c5fc.fe6542",
        "type": "ha-entity",
        "z": "ea331a57.5ef538",
        "name": "Switchboard Pressure 1",
        "server": "4e3b6b93.ce7004",
        "version": 1,
        "debugenabled": false,
        "outputs": 1,
        "entityType": "sensor",
        "config": [
            {
                "property": "name",
                "value": "Switchboard Pressure 1"
            },
            {
                "property": "device_class",
                "value": "pressure"
            },
            {
                "property": "icon",
                "value": ""
            },
            {
                "property": "unit_of_measurement",
                "value": "hPa"
            }
        ],
        "state": "payload.values.pressure",
        "stateType": "msg",
        "attributes": [],
        "resend": true,
        "outputLocation": "",
        "outputLocationType": "none",
        "inputOverride": "allow",
        "outputOnStateChange": false,
        "outputPayload": "$entity().state ? \"on\": \"off\"",
        "outputPayloadType": "jsonata",
        "x": 1170,
        "y": 360,
        "wires": [
            []
        ]
    },
    {
        "id": "a4e9c632.445ff8",
        "type": "ha-entity",
        "z": "ea331a57.5ef538",
        "name": "Switchboard Humidity 1",
        "server": "4e3b6b93.ce7004",
        "version": 1,
        "debugenabled": false,
        "outputs": 1,
        "entityType": "sensor",
        "config": [
            {
                "property": "name",
                "value": "Switchboard Humidity 1"
            },
            {
                "property": "device_class",
                "value": "humidity"
            },
            {
                "property": "icon",
                "value": ""
            },
            {
                "property": "unit_of_measurement",
                "value": "%"
            }
        ],
        "state": "payload.values.humidity",
        "stateType": "msg",
        "attributes": [],
        "resend": true,
        "outputLocation": "",
        "outputLocationType": "none",
        "inputOverride": "allow",
        "outputOnStateChange": false,
        "outputPayload": "$entity().state ? \"on\": \"off\"",
        "outputPayloadType": "jsonata",
        "x": 1170,
        "y": 220,
        "wires": [
            []
        ]
    },
    {
        "id": "34354ab2.598f06",
        "type": "ha-entity",
        "z": "ea331a57.5ef538",
        "name": "Switchboard Pressure 2",
        "server": "4e3b6b93.ce7004",
        "version": 1,
        "debugenabled": false,
        "outputs": 1,
        "entityType": "sensor",
        "config": [
            {
                "property": "name",
                "value": "Switchboard Pressure 2"
            },
            {
                "property": "device_class",
                "value": "pressure"
            },
            {
                "property": "icon",
                "value": ""
            },
            {
                "property": "unit_of_measurement",
                "value": "hPa"
            }
        ],
        "state": "payload.values.pressure",
        "stateType": "msg",
        "attributes": [],
        "resend": true,
        "outputLocation": "",
        "outputLocationType": "none",
        "inputOverride": "allow",
        "outputOnStateChange": false,
        "outputPayload": "$entity().state ? \"on\": \"off\"",
        "outputPayloadType": "jsonata",
        "x": 1170,
        "y": 420,
        "wires": [
            []
        ]
    },
    {
        "id": "11f73bda.5e7774",
        "type": "ha-entity",
        "z": "ea331a57.5ef538",
        "name": "Switchboard Gas LPG 1",
        "server": "4e3b6b93.ce7004",
        "version": 1,
        "debugenabled": false,
        "outputs": 1,
        "entityType": "sensor",
        "config": [
            {
                "property": "name",
                "value": "Switchboard Gas LPG 1"
            },
            {
                "property": "device_class",
                "value": "sensor"
            },
            {
                "property": "icon",
                "value": "mdi:gauge"
            },
            {
                "property": "unit_of_measurement",
                "value": "ppm"
            }
        ],
        "state": "payload.values.gas_lpg",
        "stateType": "msg",
        "attributes": [],
        "resend": true,
        "outputLocation": "",
        "outputLocationType": "none",
        "inputOverride": "allow",
        "outputOnStateChange": false,
        "outputPayload": "$entity().state ? \"on\": \"off\"",
        "outputPayloadType": "jsonata",
        "x": 1170,
        "y": 500,
        "wires": [
            []
        ]
    },
    {
        "id": "a3eefd90.21a988",
        "type": "ha-entity",
        "z": "ea331a57.5ef538",
        "name": "Switchboard Gas LPG 2",
        "server": "4e3b6b93.ce7004",
        "version": 1,
        "debugenabled": false,
        "outputs": 1,
        "entityType": "sensor",
        "config": [
            {
                "property": "name",
                "value": "Switchboard Gas LPG 2"
            },
            {
                "property": "device_class",
                "value": "sensor"
            },
            {
                "property": "icon",
                "value": "mdi:gauge"
            },
            {
                "property": "unit_of_measurement",
                "value": "ppm"
            }
        ],
        "state": "payload.values.gas_lpg",
        "stateType": "msg",
        "attributes": [],
        "resend": true,
        "outputLocation": "",
        "outputLocationType": "none",
        "inputOverride": "allow",
        "outputOnStateChange": false,
        "outputPayload": "$entity().state ? \"on\": \"off\"",
        "outputPayloadType": "jsonata",
        "x": 1170,
        "y": 560,
        "wires": [
            []
        ]
    },
    {
        "id": "a50f7d23.ba6da8",
        "type": "ha-entity",
        "z": "ea331a57.5ef538",
        "name": "Fan Voltage",
        "server": "4e3b6b93.ce7004",
        "version": 1,
        "debugenabled": false,
        "outputs": 1,
        "entityType": "sensor",
        "config": [
            {
                "property": "name",
                "value": "Fan Voltage"
            },
            {
                "property": "device_class",
                "value": "voltage"
            },
            {
                "property": "icon",
                "value": ""
            },
            {
                "property": "unit_of_measurement",
                "value": "V"
            }
        ],
        "state": "payload.values.ac_voltage",
        "stateType": "msg",
        "attributes": [],
        "resend": true,
        "outputLocation": "",
        "outputLocationType": "none",
        "inputOverride": "allow",
        "outputOnStateChange": false,
        "outputPayload": "$entity().state ? \"on\": \"off\"",
        "outputPayloadType": "jsonata",
        "x": 1130,
        "y": 700,
        "wires": [
            []
        ]
    },
    {
        "id": "642f9cb2.d46cac",
        "type": "ha-entity",
        "z": "ea331a57.5ef538",
        "name": "Lights Voltage",
        "server": "4e3b6b93.ce7004",
        "version": 1,
        "debugenabled": false,
        "outputs": 1,
        "entityType": "sensor",
        "config": [
            {
                "property": "name",
                "value": "Lights Voltage "
            },
            {
                "property": "device_class",
                "value": "voltage"
            },
            {
                "property": "icon",
                "value": ""
            },
            {
                "property": "unit_of_measurement",
                "value": "V"
            }
        ],
        "state": "payload.values.ac_voltage",
        "stateType": "msg",
        "attributes": [],
        "resend": true,
        "outputLocation": "",
        "outputLocationType": "none",
        "inputOverride": "allow",
        "outputOnStateChange": false,
        "outputPayload": "$entity().state ? \"on\": \"off\"",
        "outputPayloadType": "jsonata",
        "x": 1140,
        "y": 1000,
        "wires": [
            []
        ]
    },
    {
        "id": "cc1b43d4.27063",
        "type": "ha-entity",
        "z": "ea331a57.5ef538",
        "name": "Fan Current",
        "server": "4e3b6b93.ce7004",
        "version": 1,
        "debugenabled": false,
        "outputs": 1,
        "entityType": "sensor",
        "config": [
            {
                "property": "name",
                "value": "Fan Current"
            },
            {
                "property": "device_class",
                "value": "current"
            },
            {
                "property": "icon",
                "value": ""
            },
            {
                "property": "unit_of_measurement",
                "value": "A"
            }
        ],
        "state": "payload.values.ac_current",
        "stateType": "msg",
        "attributes": [],
        "resend": true,
        "outputLocation": "",
        "outputLocationType": "none",
        "inputOverride": "allow",
        "outputOnStateChange": false,
        "outputPayload": "$entity().state ? \"on\": \"off\"",
        "outputPayloadType": "jsonata",
        "x": 1130,
        "y": 760,
        "wires": [
            []
        ]
    },
    {
        "id": "2b9d8fda.2573d8",
        "type": "ha-entity",
        "z": "ea331a57.5ef538",
        "name": "Lights Current",
        "server": "4e3b6b93.ce7004",
        "version": 1,
        "debugenabled": false,
        "outputs": 1,
        "entityType": "sensor",
        "config": [
            {
                "property": "name",
                "value": "Lights Current"
            },
            {
                "property": "device_class",
                "value": "current"
            },
            {
                "property": "icon",
                "value": ""
            },
            {
                "property": "unit_of_measurement",
                "value": "A"
            }
        ],
        "state": "payload.values.ac_current",
        "stateType": "msg",
        "attributes": [],
        "resend": true,
        "outputLocation": "",
        "outputLocationType": "none",
        "inputOverride": "allow",
        "outputOnStateChange": false,
        "outputPayload": "$entity().state ? \"on\": \"off\"",
        "outputPayloadType": "jsonata",
        "x": 1140,
        "y": 1060,
        "wires": [
            []
        ]
    },
    {
        "id": "e807ee7f.7d1f38",
        "type": "ha-entity",
        "z": "ea331a57.5ef538",
        "name": "Fan Power",
        "server": "4e3b6b93.ce7004",
        "version": 1,
        "debugenabled": false,
        "outputs": 1,
        "entityType": "sensor",
        "config": [
            {
                "property": "name",
                "value": "Fan Power"
            },
            {
                "property": "device_class",
                "value": "power"
            },
            {
                "property": "icon",
                "value": ""
            },
            {
                "property": "unit_of_measurement",
                "value": "W"
            }
        ],
        "state": "payload.values.ac_power",
        "stateType": "msg",
        "attributes": [
            {
                "property": "",
                "value": "",
                "valueType": "str"
            }
        ],
        "resend": true,
        "outputLocation": "",
        "outputLocationType": "none",
        "inputOverride": "allow",
        "outputOnStateChange": false,
        "outputPayload": "$entity().state ? \"on\": \"off\"",
        "outputPayloadType": "jsonata",
        "x": 1130,
        "y": 820,
        "wires": [
            []
        ]
    },
    {
        "id": "e5043c1e.c09978",
        "type": "ha-entity",
        "z": "ea331a57.5ef538",
        "name": "Lights Power",
        "server": "4e3b6b93.ce7004",
        "version": 1,
        "debugenabled": false,
        "outputs": 1,
        "entityType": "sensor",
        "config": [
            {
                "property": "name",
                "value": "Lights Power"
            },
            {
                "property": "device_class",
                "value": "power"
            },
            {
                "property": "icon",
                "value": ""
            },
            {
                "property": "unit_of_measurement",
                "value": "W"
            }
        ],
        "state": "payload.values.ac_power",
        "stateType": "msg",
        "attributes": [],
        "resend": true,
        "outputLocation": "",
        "outputLocationType": "none",
        "inputOverride": "allow",
        "outputOnStateChange": false,
        "outputPayload": "$entity().state ? \"on\": \"off\"",
        "outputPayloadType": "jsonata",
        "x": 1130,
        "y": 1120,
        "wires": [
            []
        ]
    },
    {
        "id": "f156d4a0.c78fa",
        "type": "ha-entity",
        "z": "ea331a57.5ef538",
        "name": "Fan Voltage Level",
        "server": "4e3b6b93.ce7004",
        "version": 1,
        "debugenabled": false,
        "outputs": 1,
        "entityType": "sensor",
        "config": [
            {
                "property": "name",
                "value": "Fan Voltage Level"
            },
            {
                "property": "device_class",
                "value": "sensor"
            },
            {
                "property": "icon",
                "value": "mdi::gauge"
            },
            {
                "property": "unit_of_measurement",
                "value": ""
            }
        ],
        "state": "payload.voltage_level",
        "stateType": "msg",
        "attributes": [],
        "resend": true,
        "outputLocation": "",
        "outputLocationType": "none",
        "inputOverride": "allow",
        "outputOnStateChange": false,
        "outputPayload": "$entity().state ? \"on\": \"off\"",
        "outputPayloadType": "jsonata",
        "x": 1150,
        "y": 1740,
        "wires": [
            []
        ]
    },
    {
        "id": "a69f07a2.e9f47",
        "type": "change",
        "z": "ea331a57.5ef538",
        "name": "extract relais state",
        "rules": [
            {
                "t": "move",
                "p": "payload.relais_state",
                "pt": "msg",
                "to": "payload",
                "tot": "msg"
            }
        ],
        "action": "",
        "property": "",
        "from": "",
        "to": "",
        "reg": false,
        "x": 770,
        "y": 1640,
        "wires": [
            [
                "4ddfb835.7f6f48"
            ]
        ]
    },
    {
        "id": "9643367d.56db2",
        "type": "ha-entity",
        "z": "ea331a57.5ef538",
        "name": "Fan Power Factor",
        "server": "4e3b6b93.ce7004",
        "version": 1,
        "debugenabled": false,
        "outputs": 1,
        "entityType": "sensor",
        "config": [
            {
                "property": "name",
                "value": "Fan Power Factor"
            },
            {
                "property": "device_class",
                "value": "power_factor"
            },
            {
                "property": "icon",
                "value": ""
            },
            {
                "property": "unit_of_measurement",
                "value": ""
            }
        ],
        "state": "payload.values.ac_power_factor",
        "stateType": "msg",
        "attributes": [
            {
                "property": "",
                "value": "",
                "valueType": "str"
            }
        ],
        "resend": true,
        "outputLocation": "",
        "outputLocationType": "none",
        "inputOverride": "allow",
        "outputOnStateChange": false,
        "outputPayload": "$entity().state ? \"on\": \"off\"",
        "outputPayloadType": "jsonata",
        "x": 1150,
        "y": 880,
        "wires": [
            []
        ]
    },
    {
        "id": "74a76213.462f64",
        "type": "ha-entity",
        "z": "ea331a57.5ef538",
        "name": "Fan AC Frequency",
        "server": "4e3b6b93.ce7004",
        "version": 1,
        "debugenabled": false,
        "outputs": 1,
        "entityType": "sensor",
        "config": [
            {
                "property": "name",
                "value": "Fan AC Frequency"
            },
            {
                "property": "device_class",
                "value": "power_factor"
            },
            {
                "property": "icon",
                "value": ""
            },
            {
                "property": "unit_of_measurement",
                "value": ""
            }
        ],
        "state": "payload.values.ac_frequency",
        "stateType": "msg",
        "attributes": [
            {
                "property": "",
                "value": "",
                "valueType": "str"
            }
        ],
        "resend": true,
        "outputLocation": "",
        "outputLocationType": "none",
        "inputOverride": "allow",
        "outputOnStateChange": false,
        "outputPayload": "$entity().state ? \"on\": \"off\"",
        "outputPayloadType": "jsonata",
        "x": 1150,
        "y": 940,
        "wires": [
            []
        ]
    },
    {
        "id": "f1b233ff.c63548",
        "type": "ha-entity",
        "z": "ea331a57.5ef538",
        "name": "Lights Power Factor",
        "server": "4e3b6b93.ce7004",
        "version": 1,
        "debugenabled": false,
        "outputs": 1,
        "entityType": "sensor",
        "config": [
            {
                "property": "name",
                "value": "Lights Power Factor"
            },
            {
                "property": "device_class",
                "value": "power_factor"
            },
            {
                "property": "icon",
                "value": ""
            },
            {
                "property": "unit_of_measurement",
                "value": ""
            }
        ],
        "state": "payload.values.ac_power_factor",
        "stateType": "msg",
        "attributes": [
            {
                "property": "",
                "value": "",
                "valueType": "str"
            }
        ],
        "resend": true,
        "outputLocation": "",
        "outputLocationType": "none",
        "inputOverride": "allow",
        "outputOnStateChange": false,
        "outputPayload": "$entity().state ? \"on\": \"off\"",
        "outputPayloadType": "jsonata",
        "x": 1160,
        "y": 1180,
        "wires": [
            []
        ]
    },
    {
        "id": "cbdaaa28.7fe778",
        "type": "ha-entity",
        "z": "ea331a57.5ef538",
        "name": "Lights AC Frequency",
        "server": "4e3b6b93.ce7004",
        "version": 1,
        "debugenabled": false,
        "outputs": 1,
        "entityType": "sensor",
        "config": [
            {
                "property": "name",
                "value": "Lights AC Frequency"
            },
            {
                "property": "device_class",
                "value": "power_factor"
            },
            {
                "property": "icon",
                "value": ""
            },
            {
                "property": "unit_of_measurement",
                "value": ""
            }
        ],
        "state": "payload.values.ac_frequency",
        "stateType": "msg",
        "attributes": [
            {
                "property": "",
                "value": "",
                "valueType": "str"
            }
        ],
        "resend": true,
        "outputLocation": "",
        "outputLocationType": "none",
        "inputOverride": "allow",
        "outputOnStateChange": false,
        "outputPayload": "$entity().state ? \"on\": \"off\"",
        "outputPayloadType": "jsonata",
        "x": 1160,
        "y": 1240,
        "wires": [
            []
        ]
    },
    {
        "id": "efaab1dd.28122",
        "type": "switch",
        "z": "ea331a57.5ef538",
        "name": "relais states",
        "property": "payload.relais_state",
        "propertyType": "msg",
        "rules": [
            {
                "t": "index",
                "v": "0",
                "vt": "num",
                "v2": "0",
                "v2t": "num"
            },
            {
                "t": "index",
                "v": "1",
                "vt": "num",
                "v2": "1",
                "v2t": "num"
            },
            {
                "t": "index",
                "v": "2",
                "vt": "num",
                "v2": "2",
                "v2t": "num"
            },
            {
                "t": "index",
                "v": "3",
                "vt": "num",
                "v2": "3",
                "v2t": "num"
            }
        ],
        "checkall": "true",
        "repair": false,
        "outputs": 4,
        "x": 910,
        "y": 1880,
        "wires": [
            [
                "11c3c999.603836"
            ],
            [
                "95f1b51a.6b8338"
            ],
            [
                "bc2371da.d9261"
            ],
            [
                "30acf823.07e"
            ]
        ]
    },
    {
        "id": "4ddfb835.7f6f48",
        "type": "split",
        "z": "ea331a57.5ef538",
        "name": "",
        "splt": "\\n",
        "spltType": "str",
        "arraySplt": 1,
        "arraySpltType": "len",
        "stream": false,
        "addname": "",
        "x": 870,
        "y": 1760,
        "wires": [
            [
                "efaab1dd.28122"
            ]
        ]
    },
    {
        "id": "11c3c999.603836",
        "type": "ha-entity",
        "z": "ea331a57.5ef538",
        "name": "Main Light Switch",
        "server": "4e3b6b93.ce7004",
        "version": 1,
        "debugenabled": false,
        "outputs": 1,
        "entityType": "binary_sensor",
        "config": [
            {
                "property": "name",
                "value": "Main Light Switch"
            },
            {
                "property": "device_class",
                "value": ""
            },
            {
                "property": "icon",
                "value": ""
            },
            {
                "property": "unit_of_measurement",
                "value": ""
            }
        ],
        "state": "payload",
        "stateType": "msg",
        "attributes": [],
        "resend": true,
        "outputLocation": "",
        "outputLocationType": "none",
        "inputOverride": "allow",
        "outputOnStateChange": false,
        "outputPayload": "$entity().state ? \"on\": \"off\"",
        "outputPayloadType": "jsonata",
        "x": 1150,
        "y": 1800,
        "wires": [
            []
        ]
    },
    {
        "id": "95f1b51a.6b8338",
        "type": "ha-entity",
        "z": "ea331a57.5ef538",
        "name": "Secondary Light Switch",
        "server": "4e3b6b93.ce7004",
        "version": 1,
        "debugenabled": false,
        "outputs": 1,
        "entityType": "binary_sensor",
        "config": [
            {
                "property": "name",
                "value": "Secondary Light Switch"
            },
            {
                "property": "device_class",
                "value": ""
            },
            {
                "property": "icon",
                "value": ""
            },
            {
                "property": "unit_of_measurement",
                "value": ""
            }
        ],
        "state": "payload",
        "stateType": "msg",
        "attributes": [],
        "resend": true,
        "outputLocation": "",
        "outputLocationType": "none",
        "inputOverride": "allow",
        "outputOnStateChange": false,
        "outputPayload": "$entity().state ? \"on\": \"off\"",
        "outputPayloadType": "jsonata",
        "x": 1170,
        "y": 1860,
        "wires": [
            []
        ]
    },
    {
        "id": "bc2371da.d9261",
        "type": "ha-entity",
        "z": "ea331a57.5ef538",
        "name": "SSR Switch",
        "server": "4e3b6b93.ce7004",
        "version": 1,
        "debugenabled": false,
        "outputs": 1,
        "entityType": "binary_sensor",
        "config": [
            {
                "property": "name",
                "value": "SSR Switch"
            },
            {
                "property": "device_class",
                "value": ""
            },
            {
                "property": "icon",
                "value": ""
            },
            {
                "property": "unit_of_measurement",
                "value": ""
            }
        ],
        "state": "payload",
        "stateType": "msg",
        "attributes": [],
        "resend": true,
        "outputLocation": "",
        "outputLocationType": "none",
        "inputOverride": "allow",
        "outputOnStateChange": false,
        "outputPayload": "$entity().state ? \"on\": \"off\"",
        "outputPayloadType": "jsonata",
        "x": 1130,
        "y": 1920,
        "wires": [
            []
        ]
    },
    {
        "id": "30acf823.07e",
        "type": "ha-entity",
        "z": "ea331a57.5ef538",
        "name": "Relais Switch",
        "server": "4e3b6b93.ce7004",
        "version": 1,
        "debugenabled": false,
        "outputs": 1,
        "entityType": "binary_sensor",
        "config": [
            {
                "property": "name",
                "value": "Relais Switch"
            },
            {
                "property": "device_class",
                "value": ""
            },
            {
                "property": "icon",
                "value": ""
            },
            {
                "property": "unit_of_measurement",
                "value": ""
            }
        ],
        "state": "payload",
        "stateType": "msg",
        "attributes": [],
        "resend": true,
        "outputLocation": "",
        "outputLocationType": "none",
        "inputOverride": "allow",
        "outputOnStateChange": false,
        "outputPayload": "$entity().state ? \"on\": \"off\"",
        "outputPayloadType": "jsonata",
        "x": 1140,
        "y": 1980,
        "wires": [
            []
        ]
    },
    {
        "id": "d9126f1b.c2c6b8",
        "type": "comment",
        "z": "ea331a57.5ef538",
        "name": "Environment",
        "info": "",
        "x": 1110,
        "y": 20,
        "wires": []
    },
    {
        "id": "6673ddc.234b424",
        "type": "comment",
        "z": "ea331a57.5ef538",
        "name": "Power Meters",
        "info": "",
        "x": 1110,
        "y": 640,
        "wires": []
    },
    {
        "id": "97ca3ee1.4dc0f8",
        "type": "comment",
        "z": "ea331a57.5ef538",
        "name": "Switches",
        "info": "",
        "x": 1100,
        "y": 1680,
        "wires": []
    },
    {
        "id": "6dcae626.b892b",
        "type": "serial out",
        "z": "ea331a57.5ef538",
        "name": "",
        "serial": "7f533fc1.67def8",
        "x": 2170,
        "y": 1440,
        "wires": []
    },
    {
        "id": "9bc5770c.e5c2c8",
        "type": "inject",
        "z": "ea331a57.5ef538",
        "name": "Set fan speed: manual",
        "props": [
            {
                "p": "payload"
            }
        ],
        "repeat": "",
        "crontab": "",
        "once": false,
        "onceDelay": 0.1,
        "topic": "",
        "payload": "VM",
        "payloadType": "str",
        "x": 1840,
        "y": 1340,
        "wires": [
            [
                "6dcae626.b892b"
            ]
        ]
    },
    {
        "id": "7b23403d.847128",
        "type": "inject",
        "z": "ea331a57.5ef538",
        "name": "Set fan speed: Off",
        "props": [
            {
                "p": "payload"
            }
        ],
        "repeat": "",
        "crontab": "",
        "once": false,
        "onceDelay": 0.1,
        "topic": "",
        "payload": "V0",
        "payloadType": "str",
        "x": 1830,
        "y": 1400,
        "wires": [
            [
                "6dcae626.b892b"
            ]
        ]
    },
    {
        "id": "159505b1.ebbf7a",
        "type": "inject",
        "z": "ea331a57.5ef538",
        "name": "Set fan speed: 1",
        "props": [
            {
                "p": "payload"
            }
        ],
        "repeat": "",
        "crontab": "",
        "once": false,
        "onceDelay": 0.1,
        "topic": "",
        "payload": "V1",
        "payloadType": "str",
        "x": 1820,
        "y": 1460,
        "wires": [
            [
                "6dcae626.b892b"
            ]
        ]
    },
    {
        "id": "50456c0b.75279c",
        "type": "inject",
        "z": "ea331a57.5ef538",
        "name": "Set fan speed: 2",
        "props": [
            {
                "p": "payload"
            }
        ],
        "repeat": "",
        "crontab": "",
        "once": false,
        "onceDelay": 0.1,
        "topic": "",
        "payload": "V2",
        "payloadType": "str",
        "x": 1820,
        "y": 1520,
        "wires": [
            [
                "6dcae626.b892b"
            ]
        ]
    },
    {
        "id": "97c4fd72.ab808",
        "type": "inject",
        "z": "ea331a57.5ef538",
        "name": "Set fan speed: 3",
        "props": [
            {
                "p": "payload"
            }
        ],
        "repeat": "",
        "crontab": "",
        "once": false,
        "onceDelay": 0.1,
        "topic": "",
        "payload": "V3",
        "payloadType": "str",
        "x": 1820,
        "y": 1580,
        "wires": [
            [
                "6dcae626.b892b"
            ]
        ]
    },
    {
        "id": "4d50430a.6c929c",
        "type": "inject",
        "z": "ea331a57.5ef538",
        "name": "Set fan speed: 4",
        "props": [
            {
                "p": "payload"
            }
        ],
        "repeat": "",
        "crontab": "",
        "once": false,
        "onceDelay": 0.1,
        "topic": "",
        "payload": "V4",
        "payloadType": "str",
        "x": 1820,
        "y": 1640,
        "wires": [
            [
                "6dcae626.b892b"
            ]
        ]
    },
    {
        "id": "e1d4e6d.2d0d298",
        "type": "inject",
        "z": "ea331a57.5ef538",
        "name": "Set fan speed: full",
        "props": [
            {
                "p": "payload"
            }
        ],
        "repeat": "",
        "crontab": "",
        "once": false,
        "onceDelay": 0.1,
        "topic": "",
        "payload": "V5",
        "payloadType": "str",
        "x": 1830,
        "y": 1700,
        "wires": [
            [
                "6dcae626.b892b"
            ]
        ]
    },
    {
        "id": "85eb525a.482598",
        "type": "inject",
        "z": "ea331a57.5ef538",
        "name": "Main Light off",
        "props": [
            {
                "p": "payload"
            }
        ],
        "repeat": "",
        "crontab": "",
        "once": false,
        "onceDelay": 0.1,
        "topic": "",
        "payload": "R00",
        "payloadType": "str",
        "x": 1890,
        "y": 1280,
        "wires": [
            [
                "6dcae626.b892b"
            ]
        ]
    },
    {
        "id": "efaed332.64aa98",
        "type": "inject",
        "z": "ea331a57.5ef538",
        "name": "Main Light on",
        "props": [
            {
                "p": "payload"
            }
        ],
        "repeat": "",
        "crontab": "",
        "once": false,
        "onceDelay": 0.1,
        "topic": "",
        "payload": "R01",
        "payloadType": "str",
        "x": 1890,
        "y": 1220,
        "wires": [
            [
                "6dcae626.b892b"
            ]
        ]
    },
    {
        "id": "67790c57.1498e4",
        "type": "debug",
        "z": "ea331a57.5ef538",
        "name": "",
        "active": true,
        "tosidebar": true,
        "console": false,
        "tostatus": false,
        "complete": "false",
        "statusVal": "",
        "statusType": "auto",
        "x": 2230,
        "y": 1300,
        "wires": []
    },
    {
        "id": "77fffd1d.6ac8ec",
        "type": "inject",
        "z": "ea331a57.5ef538",
        "name": "heartbeat",
        "props": [
            {
                "p": "payload"
            },
            {
                "p": "topic",
                "vt": "str"
            }
        ],
        "repeat": "2",
        "crontab": "",
        "once": true,
        "onceDelay": 0.1,
        "topic": "",
        "payload": "~",
        "payloadType": "str",
        "x": 2050,
        "y": 1120,
        "wires": [
            [
                "6dcae626.b892b",
                "67790c57.1498e4"
            ]
        ]
    },
    {
        "id": "cf5baa30.d9675",
        "type": "ha-entity",
        "z": "ea331a57.5ef538",
        "name": "Switchboard Emergency Lock",
        "server": "4e3b6b93.ce7004",
        "version": 1,
        "debugenabled": false,
        "outputs": 1,
        "entityType": "binary_sensor",
        "config": [
            {
                "property": "name",
                "value": "Emergency Lock"
            },
            {
                "property": "device_class",
                "value": ""
            },
            {
                "property": "icon",
                "value": ""
            },
            {
                "property": "unit_of_measurement",
                "value": ""
            }
        ],
        "state": "payload.emergency_lock",
        "stateType": "msg",
        "attributes": [],
        "resend": true,
        "outputLocation": "",
        "outputLocationType": "none",
        "inputOverride": "allow",
        "outputOnStateChange": false,
        "outputPayload": "$entity().state ? \"on\": \"off\"",
        "outputPayloadType": "jsonata",
        "x": 1190,
        "y": 1480,
        "wires": [
            []
        ]
    },
    {
        "id": "8fb2f84f.702738",
        "type": "ha-entity",
        "z": "ea331a57.5ef538",
        "name": "Switchboard Emergency Lock Override",
        "server": "4e3b6b93.ce7004",
        "version": 1,
        "debugenabled": false,
        "outputs": 1,
        "entityType": "binary_sensor",
        "config": [
            {
                "property": "name",
                "value": "Emergency Lock Override"
            },
            {
                "property": "device_class",
                "value": ""
            },
            {
                "property": "icon",
                "value": ""
            },
            {
                "property": "unit_of_measurement",
                "value": ""
            }
        ],
        "state": "payload.emergency_lock_override",
        "stateType": "msg",
        "attributes": [],
        "resend": true,
        "outputLocation": "",
        "outputLocationType": "none",
        "inputOverride": "allow",
        "outputOnStateChange": false,
        "outputPayload": "$entity().state ? \"on\": \"off\"",
        "outputPayloadType": "jsonata",
        "x": 1210,
        "y": 1540,
        "wires": [
            []
        ]
    },
    {
        "id": "c8b0a8d5.11b338",
        "type": "ha-entity",
        "z": "ea331a57.5ef538",
        "name": "Switchboard Silent Mode",
        "server": "4e3b6b93.ce7004",
        "version": 1,
        "debugenabled": false,
        "outputs": 1,
        "entityType": "binary_sensor",
        "config": [
            {
                "property": "name",
                "value": "Switchboard Silent Mode"
            },
            {
                "property": "device_class",
                "value": ""
            },
            {
                "property": "icon",
                "value": ""
            },
            {
                "property": "unit_of_measurement",
                "value": ""
            }
        ],
        "state": "payload.silent_mode",
        "stateType": "msg",
        "attributes": [],
        "resend": true,
        "outputLocation": "",
        "outputLocationType": "none",
        "inputOverride": "allow",
        "outputOnStateChange": false,
        "outputPayload": "$entity().state ? \"on\": \"off\"",
        "outputPayloadType": "jsonata",
        "x": 1170,
        "y": 1600,
        "wires": [
            []
        ]
    },
    {
        "id": "1d1e261b.31a63a",
        "type": "ha-entity",
        "z": "ea331a57.5ef538",
        "name": "Switchboard Uptime",
        "server": "4e3b6b93.ce7004",
        "version": 1,
        "debugenabled": false,
        "outputs": 1,
        "entityType": "binary_sensor",
        "config": [
            {
                "property": "name",
                "value": "Switchboard Uptime"
            },
            {
                "property": "device_class",
                "value": ""
            },
            {
                "property": "icon",
                "value": ""
            },
            {
                "property": "unit_of_measurement",
                "value": ""
            }
        ],
        "state": "payload.uptime",
        "stateType": "msg",
        "attributes": [],
        "resend": true,
        "outputLocation": "",
        "outputLocationType": "none",
        "inputOverride": "allow",
        "outputOnStateChange": false,
        "outputPayload": "$entity().state ? \"on\": \"off\"",
        "outputPayloadType": "jsonata",
        "x": 1160,
        "y": 1420,
        "wires": [
            []
        ]
    }
]